{

    "doubleClick": {
        "cdn": "https://s0.2mdn.net/ads/studio/Enabler.js",
        "standardDC": "window.onload = function() { \n if (Enabler.isInitialized()) { \n init(); \n   }else{ \n Enabler.addEventListener(studio.events.StudioEvent.INIT, init); \n   } \n};",
        "polite": " window.onload = function() { \n  if (Enabler.isInitialized()) { \n   pageLoadedHandler(); \n  } else { \n      Enabler.addEventListener(studio.events.StudioEvent.INIT, pageLoadedHandler); \n  } \n}; \n \nfunction pageLoadedHandler() { \n  if (Enabler.isPageLoaded()) { \n    init(); \n  } else { \n    Enabler.addEventListener(studio.events.StudioEvent.PAGE_LOADED, init); \n  } \n}",
        "jsPolite": "if (Enabler.isInitialized()) { loadAssets(); } else { Enabler.addEventListener(studio.events.StudioEvent.INIT, loadAssets); }\n  function loadAssets() {\n    if (Enabler.isPageLoaded()) { politeInit(); } else { Enabler.addEventListener(studio.events.StudioEvent.PAGE_LOADED, politeInit); } }\n    function politeInit() {\n      var mainScript = document.createElement(\"script\");\n      mainScript.setAttribute(\"type\", \"text/javascript\");\n      mainScript.setAttribute(\"src\", Enabler.getUrl(\"js/politeLoadAnimation.js\"));\n      mainScript.async = false;\n      document.getElementsByTagName(\"body\")[0].appendChild(mainScript);\n  }\n"
    },
    "flashTalking": {
        "cdn": "https://cdn.flashtalking.com/frameworks/js/api/2/10/html5API.js",
        "manifestStandard": "FT.manifest({ \n  \"filename\":\"index.html\", \n   \"width\":300, \n   \"height\":250, \n   \"clickTagCount\":1, \n   \"hideBrowsers\":[\"ie8\",\"ie9\"], \n\"trackingEvents\" : [{\"name\": \"standardEvent\",\"type\": \"standard\"}] \n});",
        "manifestRich": "FT.manifest({ \n   \"filename\":\"index.html\", \n   \"width\":300, \n   \"height\":250, \n   \"clickTagCount\":1, \n   \"hideBrowsers\":[\"ie8\",\"ie9\"], \n\"trackingEvents\" : [{\"name\": \"standardEvent\",\"type\": \"standard\"}], \n   \"richLoads\": [{ \n       \"name\": \"sRichload\", \n  \"src\": \"filePath_rich\" \n}]\n});",
        "richIndexStyle": "#container {\n\twidth:300px;\n\theight:250px;\n\tposition: absolute;\n\tleft: 0;\n\ttop: 0;\n}\nft-richload {\n\twidth: 100%;\n\theight:100%;\n}\n\n#sRichload {\n\twidth: 100%;\n\theight: 100%;\n}\n"
    },
    "standard": {
        "adserverJs": "window.onload = init();"
    },

    "sizmek": {
        "cdn": "js/EBLoader.js",
        "jsPolite": "window.onload - function (){\nif (!EB.isInitialized()) {\n            EB.addEventListener(EBG.EventName.EB_INITIALIZED, init);\n        } else {\n            init();\n        }\n //     clickTag EB.clickthrough();\n}"
    },

    "animationTag": {
        "jsTag": "js/animation.js"
    }


}